Biostat 203B Homework 5
…
Type 'citation("pROC")' for a citation.

Attaching package: 'pROC'

The following objects are masked from 'package:stats':

    cov, smooth, var

Loading dataset

icu_data <- readRDS("mimic_icu_cohort.rds") %>%
    mutate(los_long = los > 2)
icu_data

# A tibble: 94,458 × 41
   subject_id  hadm_id  stay_id first_careunit last_careunit intime             
        <int>    <int>    <int> <chr>          <chr>         <dttm>             
 1   10000032 29079034 39553978 Medical Inten… Medical Inte… 2180-07-23 14:00:00
 2   10000690 25860671 37081114 Medical Inten… Medical Inte… 2150-11-02 19:37:00
 3   10000980 26913865 39765666 Medical Inten… Medical Inte… 2189-06-27 08:42:00
 4   10001217 24597018 37067082 Surgical Inte… Surgical Int… 2157-11-20 19:18:02
 5   10001217 27703517 34592300 Surgical Inte… Surgical Int… 2157-12-19 15:42:24
 6   10001725 25563031 31205490 Medical/Surgi… Medical/Surg… 2110-04-11 15:52:22
 7   10001843 26133978 39698942 Medical/Surgi… Medical/Surg… 2134-12-05 18:50:03
 8   10001884 26184834 37510196 Medical Inten… Medical Inte… 2131-01-11 04:20:05
 9   10002013 23581541 39060235 Cardiac Vascu… Cardiac Vasc… 2160-05-18 10:00:53
10   10002114 27793700 34672098 Coronary Care… Coronary Car… 2162-02-17 23:30:00
# ℹ 94,448 more rows
# ℹ 35 more variables: outtime <dttm>, los <dbl>, admittime <dttm>,
#   dischtime <dttm>, deathtime <dttm>, admission_type <chr>,
#   admit_provider_id <chr>, admission_location <chr>,
#   discharge_location <chr>, insurance <chr>, language <chr>,
#   marital_status <chr>, race <chr>, edregtime <dttm>, edouttime <dttm>,
#   hospital_expire_flag <int>, gender <chr>, anchor_age <int>, …
…
log_reg_res_fine <- tune_grid(
  log_reg_workflow,
  resamples = vfold_cv(train_data, v = 5, strata = los_long),
  grid = log_reg_grid_fine,
  metrics = metric_set(roc_auc)
)

# show 25 models
log_reg_res_fine %>% collect_metrics()

# A tibble: 25 × 8
   penalty mixture .metric .estimator  mean     n std_err .config              
     <dbl>   <dbl> <chr>   <chr>      <dbl> <int>   <dbl> <chr>                
 1    1.00    0    roc_auc binary     0.598     5 0.00187 Preprocessor1_Model01
 2    1.06    0    roc_auc binary     0.598     5 0.00189 Preprocessor1_Model02
 3    1.12    0    roc_auc binary     0.598     5 0.00189 Preprocessor1_Model03
 4    1.19    0    roc_auc binary     0.598     5 0.00191 Preprocessor1_Model04
 5    1.26    0    roc_auc binary     0.598     5 0.00191 Preprocessor1_Model05
 6    1.00    0.25 roc_auc binary     0.5       5 0       Preprocessor1_Model06
 7    1.06    0.25 roc_auc binary     0.5       5 0       Preprocessor1_Model07
 8    1.12    0.25 roc_auc binary     0.5       5 0       Preprocessor1_Model08
 9    1.19    0.25 roc_auc binary     0.5       5 0       Preprocessor1_Model09
10    1.26    0.25 roc_auc binary     0.5       5 0       Preprocessor1_Model10
# ℹ 15 more rows
…
